INDEX VERSION 1.131+C:\Users\thang207\Desktop\Java\.metadata\.plugins\org.eclipse.jdt.core
1124295326.index
2134493170.index
2287467648.index
2408933102.index
2687323615.index
3433509804.index
1703370312.index
324093397.index
2499951800.index
826654685.index
1165219157.index
3559423655.index
708006341.index
300795519.index
973652023.index
561600363.index
1642536134.index
173680289.index
2814522370.index
3127728267.index
