<?xml version="1.0" encoding="UTF-8"?>
<session version="1.0">
<refactoring accessors="true" comment="Delete element from project &apos;AimsProJect&apos;&#x0D;&#x0A;- Original project: &apos;AimsProJect&apos;&#x0D;&#x0A;- Original element: &apos;Aims.java&apos;" description="Delete element" element1="/src&lt;{Aims.java" elements="1" flags="589830" id="org.eclipse.jdt.ui.delete" resources="0" stamp="1550799205955" subPackages="false" version="1.0"/>
</session>